data_type,data_value
Liczba studentów,498
Średnia ocena z wykładu,3.459839357429719
Średnia ocena z laboratorium,3.4467871485943773
Średnia ocena końcowa,3.210843373493976
Liczba zaliczeń,360
Liczba niezaliczeń,138
Liczba osób z oceną końcową 2.0,46
Liczba osób z oceną końcową 2.5,92
Liczba osób z oceną końcową 3.0,143
Liczba osób z oceną końcową 3.5,93
Liczba osób z oceną końcową 4.0,82
Liczba osób z oceną końcową 4.5,31
Liczba osób z oceną końcową 5.0,11
